Growth_Curve
…
Read the data and make tidy.

triple <- read.xlsx("Growth.xlsx", sheet="Triplicate")
triple <- gather(data=triple, key=Days, value = Density, -Strain, -Flask)

Grouping the data by Strain AND Days: In this case, 3 flasks are grouped per each strain per each day.

triple.gr <- group_by(triple, Strain, Days)

Check the result of grouping.

triple.gr

## # A tibble: 99 x 4
## # Groups:   Strain, Days [33]
##    Strain Flask Days  Density
##    <chr>  <dbl> <chr>   <dbl>
##  1 IMCC1      1 0       10000
##  2 IMCC1      2 0       12000
##  3 IMCC1      3 0       14000
##  4 IMCC2      1 0       20000
##  5 IMCC2      2 0       25000
##  6 IMCC2      3 0       30000
##  7 IMCC3      1 0       30000
##  8 IMCC3      2 0       40000
##  9 IMCC3      3 0       50000
## 10 IMCC1      1 1       20000
## # ... with 89 more rows
…
All the above steps can be piped as below.

triple.sum <- read.xlsx("Growth.xlsx", sheet="Triplicate") %>%
  gather(key=Days, value = Density, -Strain, -Flask, convert=T) %>%
  group_by(Strain, Days) %>%
  summarise(repli=n(), avg=mean(Density), sd=sd(Density), se=sd(Density)/sqrt(repli))

## `summarise()` regrouping output by 'Strain' (override with `.groups` argument)

Check the result.

triple.sum

## # A tibble: 33 x 6
## # Groups:   Strain [3]
##    Strain  Days repli      avg      sd       se
##    <chr>  <int> <int>    <dbl>   <dbl>    <dbl>
##  1 IMCC1      0     3    12000    2000    1155.
##  2 IMCC1      1     3    24000    4000    2309.
##  3 IMCC1      2     3    96000   16000    9238.
##  4 IMCC1      3     3   384000   64000   36950.
##  5 IMCC1      4     3  1536000  256000  147802.
##  6 IMCC1      5     3  3072000  512000  295603.
##  7 IMCC1      6     3  4608000  768000  443405.
##  8 IMCC1      7     3  9216000 1536000  886810.
##  9 IMCC1      8     3 18432000 3072000 1773620.
## 10 IMCC1      9     3 36864000 6144000 3547240.
## # ... with 23 more rows
…
